Country	County	State	Town	Latitude	Longitude	Tax burden $ gap w/Philly	Tax burden $	Tax burden % gap w/Philly	Tax burden %
USA	Delaware	PA	Yeadon Borough	39.924594	-75.298219	2716.34128485193	10716.7764663373	0.043795551375948	0.172786511375948
USA	Bucks	PA	Yardley Borough	40.211282	-74.882021	-1265.71107364876	6734.7241078366	-0.020407050712743	0.108583909287257
USA	Bucks	PA	Wrightstown Township	40.268828	-75.002697	-1601.60545555113	6398.82972593423	-0.025822673462923	0.103168286537077
USA	Burlington	NJ	Wrightstown Borough	39.973453	-74.683955	-1750.92817738589	6249.50700409947	-0.0282302026538166	0.100760757346183
USA	Montgomery	PA	Worcester township	40.194466	-75.352878	-1019.71308425045	6980.72209723491	-0.0164408268648213	0.112550133135179
USA	Gloucester	NJ	Woolwich Township	39.737154	-75.309629	-659.135757220468	7341.29942426489	-0.01062724116445	0.11836371883555
USA	Salem	NJ	Woodstown Borough	39.635947	-75.286021	-963.643212935537	7036.79196854982	-0.0155368127251	0.1134541472749
USA	Camden	NJ	Woodlynne Borough	39.916311	-75.094695	2954.08521172034	10954.5203932057	0.04762869503192	0.17661965503192
USA	Burlington	NJ	Woodland Township	39.853734	-74.522892	-2607.83425828765	5392.60092319771	-0.0420460933520067	0.0869448666479933
USA	Gloucester	NJ	Woodbury Heights Borough	39.813546	-75.145782	-1320.05244177756	6680.38273970779	-0.0212831962077867	0.107707763792213
USA	Gloucester	NJ	Woodbury City	39.838169	-75.152677	-1674.97072349852	6325.46445798684	-0.0270055411605566	0.101985418839443
USA	Camden	NJ	Winslow Township	39.657356	-74.86232	-2964.49622268795	5035.93895879741	-0.0477965516883166	0.0811944083116833
USA	Chester	PA	Willistown township	39.991616	-75.492728	-1782.06376287442	6218.37141861094	-0.0287322014790332	0.100258758520967
USA	Burlington	NJ	Willingboro Township	40.028848	-74.891646	-179.633854446927	7820.80132703843	-0.0028962353682	0.1260947246318
USA	Montgomery	PA	Whitpain Township	40.165393	-75.282905	-1780.37209991622	6220.06308156914	-0.0287049268090903	0.10028603319091
USA	Montgomery	PA	Whitemarsh Township	40.119255	-75.236238	-1730.80882673415	6269.62635475121	-0.0279058185051706	0.101085141494829
USA	Gloucester	NJ	Westville Borough	39.866635	-75.128268	-2299.71311099538	5700.72207048998	-0.0370782582675467	0.0919127017324533
USA	Chester	PA	Westtown township	39.944434	-75.556782	-1643.84542866771	6356.58975281765	-0.0265037082515419	0.102487251748458
USA	Burlington	NJ	Westampton Township	40.020598	-74.79222	-2041.85489784066	5958.5802836447	-0.0329208121156567	0.0960701478843433
USA	Chester	PA	West Whiteland township	40.026496	-75.60917	-1859.45423926652	6140.98094221884	-0.0299799675840293	0.0990109924159707
USA	Chester	PA	West Vincent township	40.132802	-75.655721	-585.607125363046	7414.82805612231	-0.00944173955164715	0.119549220448353
USA	Chester	PA	West Sadsbury township	39.969393	-75.957936	259.365054075626	8259.80023556098	0.00418174093742929	0.133172700937429
USA	Bucks	PA	West Rockhill Township	40.374482	-75.352878	-960.361298693486	7040.07388279187	-0.0154838984449244	0.113507061555076
USA	Montgomery	PA	West Pottsgrove Township	40.248888	-75.681899	196.733283548474	8197.16846503383	0.00317192934299337	0.132162889342993
USA	Chester	PA	West Pikeland Township	40.089714	-75.632447	-822.176968174593	7178.25821331076	-0.0132559534586518	0.115735006541348
USA	Chester	PA	West Nottingham Township	39.738592	-76.050795	-667.68096189573	7332.75421958963	-0.0107650154391556	0.118225944560844
USA	Montgomery	PA	West Norriton Township	40.133076	-75.382024	-114.154429137347	7886.28075234801	-0.00184051105579291	0.127150448944207
USA	Chester	PA	West Nantmeal township	40.113041	-75.818531	-1246.53845493162	6753.89672655374	-0.0200979307164006	0.108893029283599
USA	Chester	PA	West Marlborough Township	39.888799	-75.795284	-1401.10260921315	6599.3325722722	-0.0225899674856631	0.106400992514337
USA	Chester	PA	West Grove borough	39.957335	-75.918654	-823.307511203682	7177.12767028168	-0.0132741811959355	0.115716778804065
USA	Chester	PA	West Goshen township	39.979041	-75.591709	-1700.58458935161	6299.85059213375	-0.0274185133390386	0.101572446660961
USA	Chester	PA	West Fallowfield township	39.888773	-75.957936	166.071231547251	8166.50641303261	0.0026775652948525	0.131668525294852
USA	Gloucester	NJ	West Deptford Township	39.831838	-75.189558	-1297.37729079703	6703.05789068833	-0.0209176049084667	0.108073355091533
USA	Montgomery	PA	West Conshohocken borough	40.103098	-75.356132	-1807.7279557009	6192.70722578445	-0.0291459850789522	0.0998449749210477
USA	Chester	PA	West Chester Borough	40.001716	-75.540763	-1137.73211536734	6862.70306611802	-0.0183436468710715	0.110647313128929
USA	Chester	PA	West Caln Township	40.010908	-75.867689	-636.929679021763	7363.50550246359	-0.0102692127222829	0.118721747277717
USA	Chester	PA	West Brandywine township	40.052753	-75.818531	-550.208905229065	7450.22627625629	-0.00887101429810841	0.120119945701892
USA	Chester	PA	West Bradford township	39.960665	-75.725519	-1033.9741883823	6966.46099310306	-0.0166707585461485	0.112320201453852
USA	Gloucester	NJ	Wenonah Borough	39.793397	-75.145782	78.765285429582	8079.20046691494	0.00126993214141002	0.13026089214141
USA	Camden	NJ	Waterford Township	39.771287	-74.886909	-642.846577212667	7357.58860427269	-0.01036461083008	0.11862634916992
USA	Gloucester	NJ	Washington Township	39.756139	-75.072796	-1008.4981165871	6991.93706489826	-0.01626000802029	0.11273095197971
USA	Burlington	NJ	Washington Township	39.699132	-74.569762	-3332.77381499191	4667.66136649344	-0.0537342887113866	0.0752566712886134
USA	Chester	PA	Warwick Township	40.18462	-75.748778	-822.776817021737	7177.65836446362	-0.0132656248173832	0.115725335182617
USA	Bucks	PA	Warwick Township	40.253845	-75.078636	-1220.33454374578	6780.10063773957	-0.0196754452411807	0.109315514758819
USA	Bucks	PA	Warrington Township	40.250319	-75.166212	-1297.16028641266	6703.2748950727	-0.0209141061483081	0.108076853851692
USA	Bucks	PA	Warminster Township	40.206788	-75.099807	-1287.13788714408	6713.29729434127	-0.0207525150755939	0.108238444924406
USA	Chester	PA	Wallace township	40.087153	-75.772033	-1033.9741883823	6966.46099310306	-0.0166707585461485	0.112320201453852
USA	Camden	NJ	Voorhees Township	39.851945	-74.961517	-394.949382532804	7605.48579895255	-0.00636776610879999	0.1226231938912
USA	Chester	PA	Valley township	39.98092	-75.847585	-580.190518337863	7420.24466314749	-0.00935440763478618	0.119636552365214
USA	Chester	PA	Uwchlan township	40.052469	-75.655721	-1020.35678981817	6980.07839166719	-0.0164512053251493	0.112539754674851
USA	Chester	PA	Upper Uwchlan Township	40.078415	-75.702257	-916.637604088003	7083.79757739735	-0.0147789416252054	0.114212018374795
USA	Bucks	PA	Upper Southampton Township	40.16766	-75.031909	-1187.26442167715	6813.17075980821	-0.0191422558963283	0.109848704103672
USA	Montgomery	PA	Upper Salford township	40.290776	-75.440299	-665.828517711757	7334.6066637736	-0.0107351484946436	0.118255811505356
USA	Montgomery	PA	Upper Providence township	40.172314	-75.492728	-1230.73626292864	6769.69891855672	-0.0198431520861973	0.109147807913803
USA	Delaware	PA	Upper Providence township	39.943757	-75.393681	-812.747447162869	7187.68773432249	-0.0131039213578909	0.115887038642109
USA	Montgomery	PA	Upper Pottsgrove township	40.285941	-75.638266	467.597600792062	8468.03278227742	0.00753907281936964	0.13653003281937
USA	Salem	NJ	Upper Pittsgrove Township	39.624519	-75.224569	-1660.77812305272	6339.65705843263	-0.0267767139636766	0.102214246036323
USA	Chester	PA	Upper Oxford township	39.848423	-75.957936	-410.899653890974	7589.53552759438	-0.00662493222140249	0.122366027778597
USA	Montgomery	PA	Upper Moreland Township	40.156847	-75.101994	-477.058652617986	7523.37652886737	-0.00769161329122546	0.121299346708775
USA	Montgomery	PA	Upper Merion Township	40.097222	-75.376195	-2339.61675494131	5660.81842654405	-0.0377216244374265	0.0912693355625735
USA	Bucks	PA	Upper Makefield Township	40.292052	-74.924055	-1564.39989373083	6436.03528775453	-0.0252228084521238	0.103768151547876
USA	Montgomery	PA	Upper Hanover Township	40.375426	-75.516024	-1393.48106962765	6606.95411185771	-0.0224670854566846	0.106523874543315
USA	Montgomery	PA	Upper Gwynedd township	40.221227	-75.288737	-1400.12679910433	6600.30838238103	-0.0225742345061614	0.106416725493839
USA	Montgomery	PA	Upper Frederick township	40.309711	-75.5102	-1264.74764193702	6735.68753954833	-0.0203915173100502	0.10859944268995
USA	Montgomery	PA	Upper Dublin Township	40.153268	-75.189558	-249.724276320264	7750.71090516509	-0.00402630274568085	0.124964657254319
USA	Delaware	PA	Upper Darby Township	39.957902	-75.307688	2323.21506602933	10323.6502475147	0.037457180122788	0.166448140122788
USA	Delaware	PA	Upper Chichester Township	39.840474	-75.436303	2104.35193096106	10104.7871124464	0.0339284513398339	0.162919411339834
USA	Delaware	PA	Upland borough	39.835772	-75.40898	-606.489653167565	7393.94552831779	-0.00977842840014445	0.119212531599856
USA	Bucks	PA	Tullytown Borough	40.167263	-74.807577	-1374.3052990941	6626.12988239126	-0.0221579146436285	0.106833045356372
USA	Bucks	PA	Trumbauersville Borough	40.429314	-75.356839	-801.972493814178	7198.46268767118	-0.0129301968610511	0.116060763138949
USA	Chester	PA	Tredyffrin township	40.065826	-75.470591	-2265.11297341588	5735.32220806948	-0.0365204004934045	0.0924705595065955
USA	Montgomery	PA	Trappe borough	40.192611	-75.487799	-718.054153810705	7282.38102767465	-0.0115771820570933	0.117413777942907
USA	Delaware	PA	Trainer borough	39.834489	-75.411533	3409.77391854469	11410.20910003	0.0549757608378476	0.183966720837848
USA	Montgomery	PA	Towamencin Township	40.251523	-75.329557	-1067.231576681	6933.20360480436	-0.0172069671831073	0.111783992816893
USA	Delaware	PA	Tinicum Township	39.86408	-75.282905	1061.19477567017	9061.62995715552	0.0171096358829902	0.14610059588299
USA	Bucks	PA	Tinicum Township	40.480679	-75.096155	-1475.51835902776	6524.9168224576	-0.0237897720950324	0.105201187904968
USA	Delaware	PA	Thornbury Township	39.918389	-75.5102	-1846.39415081155	6154.0410306738	-0.0297693998699892	0.0992215601300108
USA	Chester	PA	Thornbury Township	39.914236	-75.556782	-1832.21944213825	6168.21573934711	-0.0295408611420308	0.0994500988579691
USA	Montgomery	PA	Telford Borough	40.321401	-75.43541	-212.800505794461	7787.6346756909	-0.00343098105393522	0.125559978946065
USA	Bucks	PA	Telford Borough	40.350431	-75.298701				
USA	Camden	NJ	Tavistock Borough	39.851282	-74.999952	-3104.69845776931	4895.73672371605	-0.0500570313356167	0.0789339286643833
USA	Burlington	NJ	Tabernacle Township	39.843385	-74.710705	-1819.45384570419	6180.98133578117	-0.0293350415207667	0.0996559184792333
USA	Gloucester	NJ	Swedesboro Borough	39.745698	-75.356474	121.685656586248	8122.12083807161	0.00196193698283001	0.13095289698283
USA	Delaware	PA	Swarthmore borough	39.924594	-75.298219	1604.51060053337	9604.94578201872	0.0258695130949801	0.15486047309498
USA	Camden	NJ	Stratford Borough	39.851282	-74.999952	25.5215699545047	8025.95675143986	0.000411484092360026	0.12940244409236
USA	Montgomery	PA	Springfield Township	40.100423	-75.207064	-394.625260007386	7605.80992147797	-0.00636254028360889	0.122628419716391
USA	Delaware	PA	Springfield Township	39.930483	-75.329557	286.18334736727	8286.61852885263	0.00461413209100758	0.133605092091008
USA	Bucks	PA	Springfield Township	40.528007	-75.306233	-1558.57321596492	6441.86196552043	-0.0251288649676026	0.103862095032397
USA	Burlington	NJ	Springfield Township	40.031227	-74.722002	-1595.94165271568	6404.49352876968	-0.0257313560097567	0.103259603990243
USA	Chester	PA	Spring City borough	40.171488	-75.550232	-839.310943999201	7161.12423748616	-0.0135322044300174	0.115458755569983
USA	Burlington	NJ	Southampton Township	39.927429	-74.726579	-3001.22480783743	4999.21037364792	-0.0483887264076167	0.0806022335923833
USA	Gloucester	NJ	South Harrison Township	39.700114	-75.257964	-1331.64588399268	6668.78929749267	-0.0214701171948467	0.107520842805153
USA	Chester	PA	South Coventry township	40.17586	-75.67899	-921.09571586165	7079.33946562371	-0.0148508197298866	0.114140140270113
USA	Chester	PA	South Coatesville borough	39.980082	-75.862811	112.027242005691	8112.46242349105	0.00180621443267334	0.130797174432673
USA	Montgomery	PA	Souderton borough	40.313949	-75.331379	-250.00714277847	7750.42803870689	-0.0040308633995913	0.124960096600409
USA	Camden	NJ	Somerdale Borough	39.851282	-74.999952	-41.1458192111965	7959.28936227416	-0.000663393752919988	0.12832756624708
USA	Bucks	PA	Solebury Township	40.368676	-75.002697	-1986.7513006375	6013.68388084786	-0.0320323772066235	0.0969585827933765
USA	Montgomery	PA	Skippack township	40.223485	-75.422819	-273.13651663603	7727.29866484933	-0.00440377813115364	0.124587181868846
USA	Bucks	PA	Silverdale Borough	40.350431	-75.298701	-1167.32864380302	6833.10653768234	-0.0188208314902808	0.110170128509719
USA	Delaware	PA	Sharon Hill borough	39.924594	-75.298219	2185.63214501021	10186.0673264956	0.0352389316576381	0.164229891657638
USA	Burlington	NJ	Shamong Township	39.777578	-74.735151	-3461.76097014736	4538.674211338	-0.0558139477041467	0.0731770122958533
USA	Bucks	PA	Sellersville Borough	40.350431	-75.298701	-892.209430198681	7108.22575128668	-0.014385086349892	0.114605873650108
USA	Montgomery	PA	Schwenksville borough	40.236155	-75.478703	-194.184705075855	7806.2504764095	-0.00313083863025573	0.125860121369744
USA	Chester	PA	Schuylkill township	40.112142	-75.492728	-400.778577317047	7599.65660416831	-0.0064617501751901	0.12252920982481
USA	Montgomery	PA	Salford township	40.340528	-75.399509	-677.734641546639	7322.70053993872	-0.0109271108452536	0.118063849154746
USA	Salem	NJ	Salem City	39.57178	-75.467142	1285.25559538879	9285.69077687414	0.0207221668989	0.1497131268989
USA	Chester	PA	Sadsbury township	39.978049	-75.905675	-722.038420047608	7278.39676143775	-0.0116414203535279	0.117349539646472
USA	Delaware	PA	Rutledge Borough	39.924594	-75.298219	1518.1305498656	9518.56573135096	0.0244768081473456	0.153467768147346
USA	Camden	NJ	Runnemede Borough	39.852592	-75.078636	102.803089968484	8103.23827145384	0.00165749349444003	0.13064845349444
USA	Montgomery	PA	Royersford Borough	40.197691	-75.496389	-433.025965991482	7567.40921549388	-0.00698167459533099	0.122009285404669
USA	Delaware	PA	Rose Valley borough	39.907793	-75.387853	1103.03413274991	9103.46931423527	0.017784211542073	0.146775171542073
USA	Montgomery	PA	Rockledge Borough	40.197691	-75.496389	-357.964192342972	7642.47098914239	-0.00577145414824447	0.123219505851756
USA	Burlington	NJ	Riverton Borough	40.003505	-75.021776	-1073.74511879615	6926.6900626892	-0.0173119849766867	0.111678975023313
USA	Burlington	NJ	Riverside Township	40.032334	-74.957391	-986.884113125312	7013.55106836005	-0.01591152559493	0.11307943440507
USA	Bucks	PA	Riegelsville Borough	40.524934	-75.270486	-647.829823842632	7352.60535764273	-0.0104449556803456	0.118546004319654
USA	Delaware	PA	Ridley Township	39.903075	-75.312064	1967.46629522803	9967.90147671339	0.0317214452004334	0.160712405200433
USA	Delaware	PA	Ridley Park Borough	39.880971	-75.324453	1935.94174297468	9936.37692446004	0.0312131750668111	0.160204135066811
USA	Bucks	PA	Richlandtown Borough	40.443706	-75.275095	-827.92713660704	7172.50804487832	-0.0133486633837293	0.115642296616271
USA	Bucks	PA	Richland Township	40.474256	-75.352878	-594.603270364625	7405.83191112073	-0.00958678433405327	0.119404175665947
USA	Montgomery	PA	Red Hill borough	40.057182	-75.317201	-1304.18514086603	6696.25004061933	-0.02102736782711	0.10796359217289
USA	Delaware	PA	Radnor Township	40.043912	-75.37546	-974.52076941622	7025.91441206914	-0.0157121914915132	0.113278768508487
USA	Salem	NJ	Quinton Township	39.532777	-75.376195	-1788.93409889584	6211.50108258952	-0.0288429718582467	0.100147988141753
USA	Bucks	PA	Quakertown Borough	40.524027	-75.285665	-820.140743769182	7180.29443771618	-0.0132231234269258	0.115767836573074
USA	Delaware	PA	Prospect Park borough	39.880971	-75.324453	985.351281333204	8985.78646281856	0.0158868117587577	0.144877771758758
USA	Montgomery	PA	Pottstown Borough	40.229008	-75.387853	1285.12456546055	9285.55974694591	0.0207200543042913	0.149711014304291
USA	Chester	PA	Pocopson Township	39.907323	-75.661538	-1530.43311995783	6470.00206152753	-0.0246751623981664	0.104315797601834
USA	Montgomery	PA	Plymouth Township	40.108267	-75.306233	-1782.9457430071	6217.48943847825	-0.0287464216384915	0.100244538361508
USA	Bucks	PA	Plumstead Township	40.384057	-75.119511	-1261.86197221436	6738.57320927099	-0.0203449916774658	0.108645968322534
USA	Salem	NJ	Pittsgrove Township	39.531485	-75.131187	-1184.01487889775	6816.42030258761	-0.0190898635410166	0.109901096458983
USA	Gloucester	NJ	Pitman Borough	39.700212	-75.102717	-449.21610157023	7551.21907991513	-0.00724270803706999	0.12174825196293
USA	Camden	NJ	Pine Valley Borough	39.766911	-74.961532	-3008.87171463874	4991.56346684662	-0.0485120174320366	0.0804789425679633
USA	Camden	NJ	Pine Hill Borough	39.79817	-74.993222	772.153140732742	8772.5883222181	0.01244941964165	0.14144037964165
USA	Salem	NJ	Pilesgrove Township	39.653139	-75.314644	-1496.1713630779	6504.26381840746	-0.0241227603336567	0.104868199666343
USA	Chester	PA	Phoenixville Borough	40.13323	-75.542885	-266.466917352977	7733.96826413238	-0.00429624422895701	0.124694715771043
USA	Philadelphia	PA	Philadelphia	39.952584	-75.165222	0	8000.43518148536	0	0.12899096
USA	Montgomery	PA	Perkiomen Township	40.233713	-75.463603	-318.614261034429	7681.82092045093	-0.00513701548331165	0.123853944516688
USA	Bucks	PA	Perkasie Borough	40.350431	-75.298701	-1105.03750110015	6895.39768038521	-0.0178165118358531	0.111174448164147
USA	Salem	NJ	Pennsville Township	39.628451	-75.498498	-426.607186445747	7573.82799503961	-0.00687818465798998	0.12211277534201
USA	Chester	PA	Pennsbury Township	39.862624	-75.626628	-1541.5367174623	6458.89846402306	-0.0248541856224117	0.104136774377588
USA	Montgomery	PA	Pennsburg borough	40.229008	-75.387853	-944.02489486082	7056.41028662454	-0.0152205067211592	0.113770453278841
USA	Camden	NJ	Pennsauken Township	39.956205	-75.058009	-474.49581341297	7525.93936807239	-0.00765029265279997	0.1213406673472
USA	Salem	NJ	Penns Grove Borough	39.592041	-75.17338	588.996161780428	8589.43134326579	0.00949638096190003	0.1384873409619
USA	Bucks	PA	Penndel Borough	40.350431	-75.298701	-1232.17655883166	6768.25862265369	-0.0198663739668827	0.109124586033117
USA	Chester	PA	Penn township	39.816768	-75.865015	-1470.45424471366	6529.9809367717	-0.0237081234156658	0.105282836584334
USA	Burlington	NJ	Pemberton Township	39.960083	-74.584109	-2355.77738699795	5644.6577944874	-0.0379821821940867	0.0910087778059133
USA	Burlington	NJ	Pemberton Borough	39.976659	-74.541808	-3225.00742257918	4775.42775890618	-0.0519967719266466	0.0769941880733533
USA	Gloucester	NJ	Paulsboro Borough	39.840795	-75.239155	-756.853043936285	7243.58213754907	-0.01220273628892	0.11678822371108
USA	Delaware	PA	Parkside borough	39.837121	-75.406152	905.399784379173	8905.83496586453	0.0145977543373059	0.143588714337306
USA	Chester	PA	Parkesburg borough	39.954469	-75.902485	1111.23217021962	9111.66735170498	0.0179163884423722	0.146907348442372
USA	Burlington	NJ	Palmyra Borough	40.003505	-75.021776	-811.488372823615	7188.94680866174	-0.0130836213112	0.1159073386888
USA	Chester	PA	Oxford Borough	39.816616	-75.948869	498.87618176521	8499.31136325057	0.00804337715977615	0.137034337159776
USA	Salem	NJ	Oldmans Township	39.740931	-75.422819	-1589.60495942064	6410.83022206472	-0.0256291895484566	0.103361770451543
USA	Camden	NJ	Oaklyn Borough	39.900763	-75.081556	177.350274368949	8177.78545585431	0.00285941722270999	0.13185037722271
USA	Delaware	PA	Norwood Borough	39.924594	-75.298219	1332.8157295177	9333.25091100305	0.0214889786059949	0.150479938605995
USA	Bucks	PA	Northampton Township	40.208838	-75.002697	-1599.90584507146	6400.52933641389	-0.0257952706551476	0.103195689344852
USA	Montgomery	PA	North Wales borough	40.189688	-75.2867	-718.630832679674	7281.80434880568	-0.0115864798464301	0.11740448015357
USA	Burlington	NJ	North Hanover Township	40.072341	-74.581477	-2672.28917312068	5328.14600836468	-0.0430852994892267	0.0859056605107733
USA	Chester	PA	North Coventry Township	40.21596	-75.67899	-641.211502833264	7359.22367865209	-0.0103382485373939	0.118652711462606
USA	Montgomery	PA	Norristown Borough	40.175782	-75.355324	1190.36883396991	9190.80401545527	0.0191923083138275	0.148183268313827
USA	Bucks	PA	Nockamixon Township	40.529694	-75.166212	-1527.42764461349	6473.00753687187	-0.0246267051403888	0.104364254859611
USA	Delaware	PA	Newtown Township	39.982687	-75.422819	-1617.91551212574	6382.51966935961	-0.0260856403900325	0.102905319609968
USA	Bucks	PA	Newtown Township	40.242652	-74.955948	-1779.35624534132	6221.07893614404	-0.0286885481929446	0.100302411807055
USA	Bucks	PA	Newtown Borough	40.288684	-75.012654	-1644.39210281843	6356.04307866693	-0.026512522275018	0.102478437724982
USA	Chester	PA	Newlin township	39.923299	-75.748778	-1508.90701451256	6491.5281669728	-0.0243280971519068	0.104662862848093
USA	Gloucester	NJ	Newfield Borough	39.866635	-75.128268	-1046.96481462313	6953.47036686222	-0.0168802063214	0.1121107536786
USA	Chester	PA	New London township	39.779256	-75.888251	-1417.11943367079	6583.31574781457	-0.0228482066334189	0.106142753366581
USA	Bucks	PA	New Hope Borough	40.322099	-74.928915	-2139.05314454602	5861.38203693934	-0.034487938761699	0.0945030212383009
USA	Montgomery	PA	New Hanover Township	40.32138	-75.562604	-1164.56913192181	6835.86604956355	-0.0187763398996842	0.110214620100316
USA	Burlington	NJ	New Hanover Township	40.012232	-74.581477	-3063.63728457542	4936.79789690994	-0.0493950023298367	0.0795959576701633
USA	Chester	PA	New Garden Township	39.80231	-75.748778	-943.26898329289	7057.16619819247	-0.0152083191642813	0.113782640835719
USA	Bucks	PA	New Britain Township	40.31063	-75.207064	-1208.98777673426	6791.4474047511	-0.0194925013966883	0.109498458603312
USA	Bucks	PA	New Britain Borough	40.311815	-75.118672	-1082.77493694361	6917.66024454174	-0.0174575726709863	0.111533387329014
USA	Delaware	PA	Nether Providence Township	39.91058	-75.370366	1416.8909084881	9417.32608997346	0.0228445221235103	0.15183548212351
USA	Gloucester	NJ	National Park Borough	39.87137	-75.18182	533.214737165627	8533.64991865098	0.00859701744628999	0.13758797744629
USA	Montgomery	PA	Narberth borough	40.229008	-75.387853	-992.266972365723	7008.16820911964	-0.0159983133964951	0.112992646603505
USA	Burlington	NJ	Mount Laurel Township	39.934002	-74.890999	-1947.20754141039	6053.22764007497	-0.0313948134555267	0.0975961465444733
USA	Burlington	NJ	Mount Holly Township	39.993144	-74.787939	-1195.60009089094	6804.83509059441	-0.0192766518322666	0.109714308167733
USA	Camden	NJ	Mount Ephraim Borough	39.882176	-75.093235	454.559455386479	8454.99463687184	0.00732885889296001	0.13631981889296
USA	Delaware	PA	Morton borough	39.924594	-75.298219	562.682834311843	8563.1180157972	0.00907213136872514	0.138063091368725
USA	Bucks	PA	Morrisville Borough	40.211282	-74.882021	-171.597292948359	7828.837888537	-0.00276666194384448	0.126224298056156
USA	Burlington	NJ	Moorestown Township	39.968882	-74.948886	-2182.13056876821	5818.30461271715	-0.0351824757685867	0.0938084842314133
USA	Montgomery	PA	Montgomery township	40.239436	-75.236238	-1343.21552717358	6657.21965431177	-0.0216566544702458	0.107334305529754
USA	Gloucester	NJ	Monroe Township	39.674792	-74.991011	-509.312530551829	7491.12265093353	-0.00821164233765	0.12077931766235
USA	Chester	PA	Modena Borough	39.97207	-75.80554	-137.62506500346	7862.8101164819	-0.00221892795231207	0.126772032047688
USA	Delaware	PA	Millbourne borough	39.96856	-75.294294	3805.85906400695	11806.2942454923	0.0613618388443481	0.190352798844348
USA	Bucks	PA	Milford Township	40.423412	-75.422819	-657.296291407512	7343.13889007784	-0.0105975834701224	0.118393376529878
USA	Delaware	PA	Middletown Township	39.907987	-75.428646	-1097.16279084066	6903.27239064469	-0.0176895479378837	0.111301412062116
USA	Bucks	PA	Middletown Township	40.173328	-74.885799	-1189.19567036668	6811.23951111867	-0.0191733934053276	0.109817566594672
USA	Camden	NJ	Merchantville Borough	39.974909	-75.040655	-2146.15137521246	5854.2838062729	-0.0346023834846667	0.0943885765153333
USA	Delaware	PA	Media borough	39.921811	-75.413637	-282.506001403183	7717.92918008217	-0.00455484226796678	0.124436117732033
USA	Burlington	NJ	Medford Township	39.866183	-74.839016	-3187.2450896891	4813.19009179625	-0.0513879300998167	0.0776030299001833
USA	Burlington	NJ	Medford Lakes Borough	39.860157	-74.812695	-1087.91194616176	6912.52323532359	-0.0175403966343766	0.111450563365623
USA	Delaware	PA	Marple Township	39.97371	-75.352878	-1406.82599923988	6593.60918224548	-0.0226822456626941	0.106308714337306
USA	Montgomery	PA	Marlborough Township	40.366493	-75.446126	-1298.23207894859	6702.20310253677	-0.0209313866518051	0.108059573348195
USA	Delaware	PA	Marcus Hook borough	39.907793	-75.387853	2868.16266837701	10868.5978498624	0.0462433664716504	0.17523432647165
USA	Burlington	NJ	Maple Shade Township	39.952613	-74.992391	-1249.43416587133	6751.00101561403	-0.0201446182434566	0.108846341756543
USA	Gloucester	NJ	Mantua Township	39.781832	-75.18216	-3214.88224796726	4785.5529335181	-0.0518335238077966	0.0771574361922033
USA	Burlington	NJ	Mansfield Township	40.071311	-74.722002	-2037.42563166924	5963.00954981612	-0.0328493990884167	0.0961415609115833
USA	Salem	NJ	Mannington Township	39.612736	-75.408631	-1500.3007750184	6500.13440646695	-0.0241893388132467	0.104801621186753
USA	Chester	PA	Malvern borough	40.001716	-75.540763	-1363.36280052366	6637.0723809617	-0.0219814888163603	0.10700947118364
USA	Camden	NJ	Magnolia Borough	39.851282	-74.999952	-2405.11235900405	5595.3228224813	-0.0387776095997567	0.0902133504002433
USA	Burlington	NJ	Lumberton Township	39.967648	-74.800388	-2240.36003728596	5760.0751441994	-0.0361213090787767	0.0928696509212233
USA	Bucks	PA	Lower Southampton Township	40.148788	-75.002697	-641.428794949114	7359.00638653624	-0.010341751936645	0.118649208063355
USA	Montgomery	PA	Lower Salford Township	40.260532	-75.399509	-543.909809642555	7456.5253718428	-0.00876945402439779	0.120221505975602
USA	Montgomery	PA	Lower Providence Township	40.143326	-75.422819	-845.64555378446	7154.7896277009	-0.0136343372989039	0.115356622701096
USA	Montgomery	PA	Lower Pottsgrove Township	40.251492	-75.60335	342.940484240838	8343.37566572619	0.00552922700848352	0.134520187008484
USA	Chester	PA	Lower Oxford Township	39.810901	-75.981156	-439.269234232922	7561.16594725244	-0.00708233476515083	0.121908625234849
USA	Montgomery	PA	Lower Moreland Township	40.150711	-75.055274	-394.878745224516	7605.55643626084	-0.00636662722397671	0.122624332776023
USA	Montgomery	PA	Lower Merion Township	40.024967	-75.282905	-1538.16275019511	6462.27243129025	-0.0247997871719611	0.104191172828039
USA	Bucks	PA	Lower Makefield Township	40.230214	-74.862409	-1299.14065356597	6701.29452791939	-0.0209460355939525	0.108044924406048
USA	Montgomery	PA	Lower Gwynedd township	40.179375	-75.236238	-1898.94576329058	6101.48941819478	-0.0306166891473156	0.0983742708526844
USA	Montgomery	PA	Lower Frederick Township	40.272468	-75.492728	184.464599039393	8184.89978052475	0.00297412142919065	0.131965081429191
USA	Delaware	PA	Lower Chichester Township	39.82022	-75.431559	2361.27008809188	10361.7052695772	0.0380707409750813	0.167061700975081
USA	Salem	NJ	Lower Alloways Creek township	39.451993	-75.457778	-4097.02045347041	3903.41472801494	-0.06605623187296	0.06293472812704
USA	Chester	PA	Londonderry township	39.877298	-75.865015	131.507016065475	8131.94219755083	0.00212028669243861	0.131111246692439
USA	Chester	PA	London Grove Township	39.85136	-75.818531	-1233.69179380503	6766.74338768033	-0.0198908040896706	0.109100155910329
USA	Chester	PA	London Britain Township	39.747522	-75.795284	-1387.9353718287	6612.49980965666	-0.0223776722101887	0.106613287789811
USA	Gloucester	NJ	Logan Township	39.784718	-75.349185	-2579.21646540756	5421.2187160778	-0.0415846888792566	0.0874062711207433
USA	Camden	NJ	Lindenwold Borough	39.851282	-74.999952	746.401690360731	8746.83687184609	0.01203422918894	0.14102518918894
USA	Montgomery	PA	Limerick Township	40.238361	-75.539315	-1050.23942559181	6950.19575589355	-0.0169330028509505	0.112057957149049
USA	Camden	NJ	Lawnside Borough	39.851282	-74.999952	-1694.75110634482	6305.68407514053	-0.0273244601336667	0.101666499866333
USA	Camden	NJ	Laurel Springs Borough	39.851282	-74.999952	892.629065620618	8893.06424710598	0.01439185212884	0.14338281212884
USA	Delaware	PA	Lansdowne Borough	39.924594	-75.298219	2405.9384567885	10406.3736382739	0.0387909287685085	0.167781888768508
USA	Montgomery	PA	Lansdale Borough	40.262613	-75.247958	-1103.90243809244	6896.53274339292	-0.0177982112229859	0.111192748777014
USA	Bucks	PA	Langhorne Manor Borough	40.163702	-74.908734	-1359.35430851669	6641.08087296867	-0.0219168599280058	0.107074100071994
USA	Bucks	PA	Langhorne Borough	40.209651	-74.881301	-1300.7746797332	6699.66050175216	-0.0209723809863211	0.108018579013679
USA	Chester	PA	Kennett Township	39.833925	-75.67899	-905.457366009715	7094.97781547564	-0.014598682725529	0.114392277274471
USA	Chester	PA	Kennett Square Borough	40.005502	-75.566434	-555.536895446835	7444.89828603852	-0.00895691744680852	0.120034042553191
USA	Montgomery	PA	Jenkintown borough	40.229008	-75.387853	800.293491658283	8800.72867314364	0.0129031263211345	0.141894086321134
USA	Bucks	PA	Ivyland Borough	40.215443	-75.087069	-1361.2643469605	6639.17083452486	-0.0219476554643629	0.107043304535637
USA	Bucks	PA	Hulmeville Borough	40.092856	-74.947151	-1346.99989854729	6653.43528293807	-0.0217176698632109	0.107273290136789
USA	Montgomery	PA	Horsham township	40.190282	-75.166212	-1118.05440254424	6882.38077894112	-0.0180263832460214	0.110964576753979
USA	Chester	PA	Honey Brook Township	40.081513	-75.888251	-903.51362268734	7096.92155879802	-0.0145673437656525	0.114423616234347
USA	Chester	PA	Honey Brook Borough	40.081513	-75.888251	-1188.66451103404	6811.77067045131	-0.019164829527154	0.109826130472846
USA	Bucks	PA	Hilltown township	40.339402	-75.236238	-887.688298873472	7112.74688261189	-0.0143121921814255	0.114678767818575
USA	Chester	PA	Highland township	39.920496	-75.888251	547.565214735215	8548.00039622057	0.00882839009492334	0.137819350094923
USA	Camden	NJ	Hi-Nella Borough	39.851282	-74.999952	-2897.46346537816	5102.9717161072	-0.0467157830150266	0.0822751769849733
USA	Bucks	PA	Haycock township	40.482108	-75.259573	-750.063208228453	7250.3719732569	-0.0120932638156947	0.116897696184305
USA	Delaware	PA	Haverford Township	39.987799	-75.306233	225.656386233975	8226.09156771933	0.00363825632358253	0.132629216323583
USA	Montgomery	PA	Hatfield Township	40.279743	-75.277072	-1401.55553396451	6598.87964752085	-0.0225972699882346	0.106393690011765
USA	Montgomery	PA	Hatfield Borough	40.279427	-75.268321	-1623.52792978292	6376.90725170244	-0.0261761293603319	0.102814830639668
USA	Montgomery	PA	Hatboro Borough	40.168658	-75.121905	-299.151205180992	7701.28397630437	-0.0048232127710694	0.124167747228931
USA	Gloucester	NJ	Harrison Township	39.729649	-75.207737	-1538.82447870116	6461.6107027842	-0.0248104562159966	0.104180503784003
USA	Burlington	NJ	Hainesport Township	39.983723	-74.827108	-2443.36198484315	5557.0731966422	-0.0393943080473666	0.0895966519526333
USA	Camden	NJ	Haddonfield Borough	39.916556	-75.021934	-1095.81453081914	6904.62065066622	-0.0176678099510666	0.111323150048933
USA	Camden	NJ	Haddon Township	39.910518	-75.049745	-735.127560595668	7265.30762088969	-0.01185245647426	0.11713850352574
USA	Camden	NJ	Haddon Heights Borough	39.878348	-75.064035	-933.918157464114	7066.51702402124	-0.0150575558654	0.1139334041346
USA	Gloucester	NJ	Greenwich Township	39.820084	-75.261867	-2055.67506349287	5944.76011799249	-0.0331436345489867	0.0958473254510133
USA	Montgomery	PA	Green Lane borough	40.321954	-75.435474	-1327.99738853579	6672.43779294956	-0.0214112925283299	0.10757966747167
USA	Camden	NJ	Gloucester Township	39.793381	-75.049433	-278.098342490063	7722.33683899529	-0.00448377761439997	0.1245071823856
USA	Camden	NJ	Gloucester City	39.89178	-75.116286	-517.484943418797	7482.95023806656	-0.00834340609265999	0.12064755390734
USA	Delaware	PA	Glenolden Borough	39.924594	-75.298219	996.461255695618	8996.89643718098	0.0160659377970386	0.145056897797039
USA	Gloucester	NJ	Glassboro Borough	39.700212	-75.102717	-341.016490553284	7659.41869093207	-0.00549820647182998	0.12349275352817
USA	Camden	NJ	Gibbsboro Borough	39.862329	-74.936032	-180.667532815781	7819.76764866958	-0.00291290135724998	0.12607805864275
USA	Chester	PA	Franklin Township	39.753298	-75.841775	-1180.74409026167	6819.69109122368	-0.0190371286389077	0.109953831361092
USA	Gloucester	NJ	Franklin Township	39.600156	-75.03775	-1407.1984055048	6593.23677598055	-0.0226882499662767	0.106302710033723
USA	Montgomery	PA	Franconia township	40.314537	-75.352878	-690.83137776501	7309.60380372035	-0.0111382694309245	0.117852690569075
USA	Delaware	PA	Folcroft Borough	39.924594	-75.298219	1991.20759366797	9991.64277515332	0.0321042259877212	0.161095185987721
USA	Burlington	NJ	Florence Township	40.096737	-74.786339	-1839.91859781287	6160.51658367249	-0.0296649945746667	0.0993259654253333
USA	Burlington	NJ	Fieldsboro Borough	39.855849	-74.686882	-1426.45480233015	6573.98037915521	-0.0229987207164667	0.105992239283533
USA	Bucks	PA	Falls Township	40.16083	-74.79222	-1463.17399601686	6537.2611854685	-0.0235907440172786	0.105400215982721
USA	Burlington	NJ	Evesham Township	39.852295	-74.885799	-1533.25338908597	6467.18179239939	-0.0247206335774267	0.104270326422573
USA	Chester	PA	Elverson borough	40.00102	-75.806908	-1324.8384966754	6675.59668480996	-0.021360361737146	0.107630598262854
USA	Salem	NJ	Elsinboro Township	39.527386	-75.492728	-1501.32639496036	6499.108786525	-0.0242058748763366	0.104785085123663
USA	Salem	NJ	Elmer Borough	39.601535	-75.177378	-1084.47040089197	6915.96478059339	-0.0174849086242667	0.111506051375733
USA	Chester	PA	Elk Township	39.73594	-75.905675	-438.474885983349	7561.96029550201	-0.00706952749392589	0.121921432506074
USA	Gloucester	NJ	Elk Township	39.66441	-75.142863	-1180.85969682524	6819.57548466012	-0.0190389925627167	0.109951967437283
USA	Delaware	PA	Edgmont township	39.948417	-75.469428	-1204.3323810341	6796.10280045126	-0.0194174424846515	0.109573517515348
USA	Burlington	NJ	Edgewater Park Township	40.068167	-74.900722	-1527.16034601475	6473.27483547061	-0.0246223954869666	0.104368564513033
USA	Delaware	PA	Eddystone borough	39.858685	-75.344625	2272.86963482837	10273.3048163137	0.0366454610906464	0.165636421090646
USA	Chester	PA	Easttown Township	40.025869	-75.446126	-2075.49069841029	5924.94448307506	-0.0334631218909906	0.0955278381090093
USA	Burlington	NJ	Eastampton Township	40.003381	-74.756468	-1206.05787192202	6794.37730956334	-0.0194452625620667	0.109545697437933
USA	Chester	PA	East Whiteland township	40.040701	-75.562604	-2073.45595889635	5926.97922258901	-0.0334303158001593	0.0955606441998406
USA	Chester	PA	East Vincent Township	40.164105	-75.585889	-669.477168147864	7330.95801333749	-0.0107939756598892	0.118196984340111
USA	Bucks	PA	East Rockhill Township	40.425316	-75.282905	-900.45798312756	7099.9771983578	-0.0145180777105831	0.114472882289417
USA	Chester	PA	East Pikeland township	40.135339	-75.556782	-641.352618616773	7359.08256286858	-0.010340523746176	0.118650436253824
USA	Chester	PA	East Nottingham Township	39.750285	-75.981156	-467.638814574871	7532.79636691049	-0.00753973730889916	0.121451222691101
USA	Montgomery	PA	East Norriton Township	40.147122	-75.335388	-49.582910758648	7950.85227072671	-0.000799424920428504	0.128191535079571
USA	Chester	PA	East Nantmeal township	40.124415	-75.748778	-766.03765633784	7234.39752514752	-0.0123508197298866	0.116640140270113
USA	Chester	PA	East Marlborough township	39.880087	-75.725519	-1092.95533904127	6907.47984244409	-0.0176217112221993	0.111369248777801
USA	Delaware	PA	East Lansdowne borough	39.924594	-75.298219	3009.3668586606	11009.802040146	0.0485200006356085	0.177510960635609
USA	Gloucester	NJ	East Greenwich Township	39.797599	-75.236238	-3217.67649743568	4782.75868404968	-0.0518785754722667	0.0771123845277333
USA	Montgomery	PA	East Greenville borough	40.229008	-75.387853	-970.813673489307	7029.62150799605	-0.0156524220100316	0.113338537989968
USA	Chester	PA	East Goshen Township	40.000496	-75.562604	-1785.69333037745	6214.7418511079	-0.0287907209702836	0.100200239029716
USA	Chester	PA	East Fallowfield Township	39.947827	-75.824343	-750.408000389557	7250.0271810958	-0.0120988228972762	0.116892137102724
USA	Chester	PA	East Coventry Township	40.20715	-75.60917	-482.341852918351	7518.09332856701	-0.00777679429240317	0.121214165707597
USA	Chester	PA	East Caln Township	40.01231	-75.676082	-892.126286672558	7108.3088948128	-0.0143837458274068	0.114607214172593
USA	Chester	PA	East Brandywine Township	40.03975	-75.754592	-644.379774858959	7356.0554066264	-0.0103893305649167	0.118601629435083
USA	Chester	PA	East Bradford Township	39.948969	-75.632447	-1733.90054329834	6266.53463818702	-0.0279556662295275	0.101035293770472
USA	Bucks	PA	Durham Township	40.575596	-75.2129	-1724.01313260588	6276.42204887948	-0.0277962515766739	0.101194708423326
USA	Bucks	PA	Dublin Borough	40.361851	-75.212688	-1016.79171560442	6983.64346588094	-0.0163937256587473	0.112597234341253
USA	Bucks	PA	Doylestown Township	40.287258	-75.142863	-1324.15311491723	6676.28206656812	-0.0213493113318934	0.107641648668107
USA	Bucks	PA	Doylestown Borough	40.311815	-75.118672	-1303.9084935388	6696.52668794656	-0.0210229074442045	0.107968052555796
USA	Chester	PA	Downingtown Borough	40.00102	-75.806908	-239.62593880773	7760.80924267763	-0.0038634873211949	0.125127472678805
USA	Montgomery	PA	Douglass Township	40.340072	-75.591709	-1255.22274286912	6745.21243861624	-0.0202379474295622	0.108753012570438
USA	Gloucester	NJ	Deptford Township	39.822705	-75.119511	-3307.45247053632	4692.98271094904	-0.0533260328533333	0.0756649271466667
USA	Burlington	NJ	Delran Township	40.015892	-74.956425	-446.727363991969	7553.70781749339	-0.00720258213864999	0.12178837786135
USA	Burlington	NJ	Delanco Township	40.050667	-74.953502	-1582.45401313216	6417.9811683532	-0.0255138948918866	0.103477065108113
USA	Delaware	PA	Darby Township	39.899185	-75.26249	2038.96256411286	10039.3977455982	0.0328741790393644	0.161865139039364
USA	Delaware	PA	Darby Borough	39.924594	-75.298219	3737.20905407823	11737.6442355636	0.0602549952184904	0.18924595521849
USA	Montgomery	PA	Conshohocken Borough	40.103098	-75.356132	-1556.72939014433	6443.70579134103	-0.0250991369769026	0.103891823023097
USA	Delaware	PA	Concord Township	39.873814	-75.516024	-346.533724417733	7653.90145706762	-0.00558716079451066	0.123403799205489
USA	Delaware	PA	Colwyn Borough	39.907793	-75.387853	4638.90442895415	12639.3396104395	0.0747930233875045	0.203783983387504
USA	Camden	NJ	Collingswood Borough	39.916556	-75.021934	-581.604648123783	7418.83053336158	-0.00937720763934999	0.11961375236065
USA	Delaware	PA	Collingdale Borough	39.924594	-75.298219	2084.37458431923	10084.8097658046	0.0336063567208378	0.162597316720838
USA	Montgomery	PA	Collegeville Borough	40.192515	-75.437321	6.2836948227089	8006.71887630807	0.000101311967304479	0.129092271967304
USA	Chester	PA	Coatesville City	39.983162	-75.823835	1248.3387524311	9248.77393391646	0.0201269569002863	0.149117916900286
USA	Delaware	PA	Clifton Heights Borough	39.924594	-75.298219	1646.77330139426	9647.20848287961	0.0265509143228602	0.15554187432286
USA	Camden	NJ	Clementon Borough	39.802934	-74.988089	358.425956748642	8358.861138234	0.00577889917250002	0.1347698591725
USA	Gloucester	NJ	Clayton Borough	39.642841	-75.092341	-440.474602778348	7559.96057870701	-0.00710176891370665	0.121889191086293
USA	Burlington	NJ	Cinnaminson Township	39.996965	-74.992769	-1492.6256916024	6507.80948988296	-0.0240655934974666	0.104925366502533
USA	Burlington	NJ	Chesterfield Township	40.121908	-74.651754	-1589.3669557446	6411.06822574076	-0.0256253522168667	0.103365607783133
USA	Delaware	PA	Chester Township	39.851762	-75.402423	337.85816763761	8338.29334912297	0.0054472848537378	0.134438244853738
USA	Delaware	PA	Chester Heights Borough	39.933695	-75.527102	-469.576690481465	7530.85849100389	-0.00757098166847237	0.121419978331528
USA	Delaware	PA	Chester City	39.849557	-75.355746	-1438.6127569678	6561.82242451756	-0.0231947433333333	0.105796216666667
USA	Camden	NJ	Chesilhurst Borough	39.790949	-74.935491	-555.962367328776	7444.47281415658	-0.00896377732695998	0.12002718267304
USA	Camden	NJ	Cherry Hill Township	39.926813	-75.024631	-543.064976636489	7457.37020484887	-0.00875583278780001	0.1202351272122
USA	Montgomery	PA	Cheltenham Township	40.08126	-75.137025	1382.57860868069	9383.01379016604	0.0222913051557372	0.151282265155737
USA	Chester	PA	Charlestown Township	40.08516	-75.556782	-1728.72895183155	6271.70622965381	-0.0278722846967864	0.101118675303214
USA	Bucks	PA	Chalfont Borough	40.307393	-75.243117	-1256.67104365579	6743.76413782957	-0.0202612983729302	0.10872966162707
USA	Delaware	PA	Chadds Ford Township	39.865348	-75.568425	-1375.46115286799	6624.97402861737	-0.0221765504658721	0.106814409534128
USA	Salem	NJ	Carneys Point Township	39.711199	-75.470144	-1365.21166598464	6635.22351550072	-0.0220112980611466	0.106979661938853
USA	Camden	NJ	Camden City	39.925946	-75.11962	-730.307492156274	7270.12768932908	-0.01177474254481	0.11721621745519
USA	Chester	PA	Caln Township	40.003826	-75.748778	-431.760873988787	7568.67430749657	-0.00696127752589487	0.122029682474105
USA	Burlington	NJ	Burlington Township	40.056147	-74.845882	-1234.81813190841	6765.61704957695	-0.0199089640309667	0.109081995969033
USA	Burlington	NJ	Burlington City	40.071222	-74.864887	-2329.21240578688	5671.22277569848	-0.0375538751893966	0.0914370848106034
USA	Bucks	PA	Buckingham Township	40.314954	-75.049433	-1422.78075753011	6577.65442395525	-0.0229394841180705	0.106051475881929
USA	Montgomery	PA	Bryn Athyn Borough	40.13268	-75.0632	-2799.38113650383	5201.05404498153	-0.0451344023184098	0.0838565576815902
USA	Camden	NJ	Brooklawn Borough	39.878389	-75.123268	-1048.32299318543	6952.11218829993	-0.01690210422478	0.11208885577522
USA	Delaware	PA	Brookhaven Borough	39.835772	-75.40898	190.195184798782	8190.63036628414	0.00306651562296859	0.132057475622969
USA	Bucks	PA	Bristol Township	40.125949	-74.868257	21.0525558070799	8021.48773729244	0.000339430208783298	0.129330390208783
USA	Bucks	PA	Bristol Borough	40.124405	-74.859536	-532.405899274426	7468.02928221093	-0.00858397655867531	0.120406983441325
USA	Bucks	PA	Bridgeton Township	40.557636	-75.113672	-1682.4857041373	6317.94947734806	-0.0271267051403888	0.101864254859611
USA	Montgomery	PA	Bridgeport Borough	40.105762	-75.344074	-520.318785435011	7480.11639605035	-0.0083890961074989	0.120601863892501
USA	Burlington	NJ	Bordentown Township	40.148083	-74.694574	-546.670319744489	7453.76486174087	-0.0088139617093	0.1201769982907
USA	Burlington	NJ	Bordentown City	40.148083	-74.694574	-1044.39178957886	6956.0433919065	-0.01683872145676	0.11215223854324
USA	Chester	PA	Birmingham Township	39.899988	-75.60335	-1722.56656039755	6277.8686210878	-0.0277729285031625	0.101218031496838
USA	Burlington	NJ	Beverly City	40.065389	-74.919056	-1545.88202679211	6454.55315469325	-0.0249242450140866	0.104066714985913
USA	Delaware	PA	Bethel Township	39.84492	-75.486903	-171.07945429931	7829.35572718605	-0.00275831283495845	0.126232647165042
USA	Camden	NJ	Berlin Township	39.800826	-74.915031	0.391317381391182	8000.82649886675	6.30920738001195e-06	0.12899726920738
USA	Camden	NJ	Berlin Borough	39.791226	-74.929054	-1016.46001011741	6983.97517136794	-0.01638837757352	0.11260258242648
USA	Bucks	PA	Bensalem Township	40.099442	-74.932568	-1290.39086904079	6710.04431244457	-0.0208049628797696	0.10818599712023
USA	Camden	NJ	Bellmawr Borough	39.864302	-75.0936	-266.77020728551	7733.66497419985	-0.00430113417039998	0.1246898258296
USA	Bucks	PA	Bedminster Township	40.421622	-75.177885	-913.642941666335	7086.79223981902	-0.0147306587041037	0.114260301295896
USA	Burlington	NJ	Bass River Township	39.592618	-74.442649	-2957.76339063498	5042.67179085038	-0.0476879982846167	0.0813029617153833
USA	Camden	NJ	Barrington Borough	39.916556	-75.021934	242.220777444946	8242.6559589303	0.00390532388624004	0.13289628388624
USA	Chester	PA	Avondale Borough	39.824588	-75.783053	-766.568350519784	7233.86683096557	-0.0123593761084388	0.116631583891561
USA	Camden	NJ	Audubon Park Borough	39.895434	-75.088856	2235.39080638432	10235.8259878697	0.036041190204	0.165032150204
USA	Camden	NJ	Audubon Borough	39.77837	-74.947664	-566.698724618296	7433.73645686706	-0.00913687953980999	0.11985408046019
USA	Chester	PA	Atglen Borough	39.810372	-75.80269	555.188395517422	8555.62357700278	0.00895129858490473	0.137942258584905
USA	Delaware	PA	Aston Township	39.8692	-75.440299	141.589046963222	8142.02422844858	0.00228283920548936	0.131273799205489
USA	Montgomery	PA	Ambler Borough	40.159154	-75.222746	-1411.28226103484	6589.15292045051	-0.022754093940182	0.106236866059818
USA	Salem	NJ	Alloway Township	39.555662	-75.317895	-1565.46611692958	6434.96906455578	-0.0252399991612366	0.103750960838763
USA	Delaware	PA	Aldan Borough	39.924594	-75.298219	1710.17631234234	9710.6114938277	0.0275731606211629	0.156564120621163
USA	Montgomery	PA	Abington Township	40.12408	-75.119511	-528.328918296313	7472.10626318904	-0.00851824342312218	0.120472716576878
